In Class Exercise 05 – GeospatialWebsite
…
# Compute local Gi
HCSA <- wm_idw %>%
  mutate(local_Gi = local_gstar_perm(GDPPC, nb, wt, nsim = 99),
         .before = 1) %>%
  unnest(local_Gi)

HCSA

Simple feature collection with 88 features and 18 fields
Geometry type: POLYGON
Dimension:     XY
Bounding box:  xmin: 108.7831 ymin: 24.6342 xmax: 114.2544 ymax: 30.12812
Geodetic CRS:  WGS 84
# A tibble: 88 × 19
   gi_star cluster   e_gi     var_gi std_dev p_value p_sim p_folded_sim skewness
     <dbl> <fct>    <dbl>      <dbl>   <dbl>   <dbl> <dbl>        <dbl>    <dbl>
 1  0.0416 Low     0.0112 0.00000671  0.0972 9.23e-1  0.66         0.33    1.18 
 2 -0.333  Low     0.0115 0.00000836 -0.358  7.20e-1  0.88         0.44    0.742
 3  0.281  High    0.0125 0.00000952 -0.0940 9.25e-1  0.88         0.44    0.858
 4  0.411  High    0.0118 0.00000880  0.278  7.81e-1  0.76         0.38    0.785
 5  0.387  High    0.0118 0.00000971  0.241  8.10e-1  0.62         0.31    1.33 
 6 -0.368  High    0.0114 0.00000540 -0.432  6.66e-1  0.84         0.42    0.414
 7  3.56   High    0.0157 0.00000999  2.06   3.94e-2  0.06         0.03    0.809
 8  2.52   High    0.0135 0.00000444  1.78   7.46e-2  0.12         0.06    0.593
 9  4.56   High    0.0141 0.00000433  4.25   2.10e-5  0.02         0.01    0.534
10  1.16   Low     0.0110 0.00000438  1.41   1.59e-1  0.2          0.1     0.683
# ℹ 78 more rows
# ℹ 10 more variables: kurtosis <dbl>, nb <nb>, wts <list>, NAME_2 <chr>,
#   ID_3 <int>, NAME_3 <chr>, ENGTYPE_3 <chr>, County <chr>, GDPPC <dbl>,
#   geometry <POLYGON [°]>
…
