Hands-On Exercise 09 – GeospatialWebsite
…
# Load OD_matrix data
ODMatrix <- read_csv("data/aspatial/OD_Matrix.csv", skip = 0)

Rows: 375000 Columns: 6
── Column specification ────────────────────────────────────────────────────────
Delimiter: ","
dbl (6): origin_id, destination_id, entry_cost, network_cost, exit_cost, tot...

ℹ Use `spec()` to retrieve the full column specification for this data.
ℹ Specify the column types or set `show_col_types = FALSE` to quiet this message.

# Check data
ODMatrix

# A tibble: 375,000 × 6
   origin_id destination_id entry_cost network_cost exit_cost total_cost
       <dbl>          <dbl>      <dbl>        <dbl>     <dbl>      <dbl>
 1         1              1       668.       19847.      47.6     20562.
 2         1              2       668.       45027.      31.9     45727.
 3         1              3       668.       17644.     173.      18486.
 4         1              4       668.       36010.      92.2     36770.
 5         1              5       668.       31068.      64.6     31801.
 6         1              6       668.       31195.     117.      31980.
 7         1              8       668.       32475.      55.1     33198.
 8         1              9       668.       22267.      28.4     22963.
 9         1             10       668.       45220.      55.1     45943.
10         1             11       668.       34898.      27.5     35593.
# ℹ 374,990 more rows
…
